"name","amount","category","date","description"
"Smith, John","10.61","food",23.04.2012,"milk"
"Smith, John","11.59","entertainment",15.02.2012,"movie"
"Smith, John","12.00","clothes",10.04.2012,"top"
"Smith, John","13.00","utilities",4.02.2012,"gas"
"Smith, John","14.00","entertainment",4.04.2012,""
"Smith, John","15.00","utilities",9.04.2012,"internet"
"Smith, John","16.00","entertainment",17.04.2012,""
"Smith, John","17.99","food",29.03.2012,"cake"
"Smith, John","18.00","food",25.04.2012,"fish"
"Smith, John","19.00","clothes",1.04.2012,"shoes"
"Smith, John","20.00","food",6.04.2012,"strawberries"
"Smith, John","21.00","food",17.03.2012,"pizza"
"Smith, John","22.00","utilities",5.01.2012,"water"
"Doe, Jane","106.00","entertainment",17.04.2012,""
"Doe, Jane","15.99","food",29.03.2012,"cake"
"Doe, Jane","190.00","clothes",1.04.2012,"shoes"
"Doe, Jane","20.00","food",6.04.2012,"strawberries"
"Doe, Jane","25.00","food",17.03.2012,"chocolate"
"Smith, John","10.61","food",23.04.2013,"milk"
"Smith, John","11.59","entertainment",15.02.2013,"movie"
"Smith, John","12.00","clothes",10.04.2013,"top"
"Smith, John","13.00","utilities",4.02.2013,"gas"
"Smith, John","14.00","entertainment",4.04.2013,""
"Smith, John","15.00","utilities",9.04.2013,"internet"
"Smith, John","16.00","entertainment",17.04.2013,""
"Smith, John","17.99","food",29.03.2013,"cake"
"Smith, John","18.00","food",25.04.2013,"fish"
"Smith, John","19.00","clothes",1.04.2013,"shoes"
"Smith, John","20.00","food",6.04.2013,"strawberries"
"Smith, John","21.00","food",17.03.2013,"pizza"
"Smith, John","22.00","utilities",5.01.2013,"water"
"Doe, Jane","106.00","entertainment",17.04.2013,""
"Doe, Jane","15.99","food",29.03.2013,"cake"
"Doe, Jane","190.00","clothes",1.04.2013,"shoes"
"Doe, Jane","20.00","food",6.04.2013,"strawberries"
"Doe, Jane","25.00","food",17.03.2013,"chocolate"
